6,38,29,8,40,42,10,31,6,12,33,19,14,31,36,16,33,49,18,32,6,20,34,19,22,36,32,0,34,49,2,37,2,4,35,18
6,42,26,8,44,39,10,35,2,12,37,16,14,35,32,16,37,45,18,36,2,20,38,15,22,40,29,0,38,45,2,40,58,4,39,15
6,46,22,8,48,35,10,38,59,12,41,12,14,39,29,16,41,42,18,39,59,20,42,12,22,44,25,0,42,42,2,44,55,4,43,12
6,50,19,8,52,32,10,42,55,12,45,9,14,43,25,16,45,39,18,43,55,20,46,8,22,48,22,0,46,38,2,48,52,4,47,8
6,54,15,8,56,28,10,46,52,12,49,5,14,47,22,16,49,35,18,47,52,20,50,5,22,52,18,0,50,35,2,52,48,4,51,5
6,58,12,9,0,25,10,50,49,12,53,2,14,51,18,16,53,32,18,51,48,20,54,2,22,56,15,0,54,31,2,56,45,4,55,1
7,2,8,9,4,22,10,54,45,12,56,58,14,55,15,16,57,28,18,55,45,20,57,58,23,0,11,0,58,28,3,0,41,4,58,58
7,6,5,9,8,18,10,58,42,13,0,55,14,59,12,17,1,25,18,59,41,21,1,55,23,4,8,1,2,25,3,4,38,5,2,54
7,10,1,9,12,15,11,2,38,13,4,51,15,3,8,17,5,21,19,3,38,21,5,51,23,8,4,1,6,21,3,8,34,5,6,51
7,13,58,9,16,11,11,6,35,13,8,48,15,7,5,17,9,18,19,7,35,21,9,48,23,12,1,1,10,18,3,12,31,5,10,47
7,17,55,9,20,8,11,10,31,13,12,45,15,11,1,17,13,14,19,11,31,21,13,44,23,15,58,1,14,14,3,16,27,5,14,44
7,21,51,9,24,4,11,14,28,13,16,41,15,14,58,17,17,11,19,15,28,21,17,41,23,19,54,1,18,11,3,20,24,5,18,41
7,25,48,9,28,1,11,18,24,13,20,38,15,18,54,17,21,8,19,19,24,21,21,37,23,23,51,1,22,7,3,24,21,5,22,37
7,29,44,9,31,57,11,22,21,13,24,34,15,22,51,17,25,4,19,23,21,21,25,34,23,27,47,1,26,4,3,28,17,5,26,34
7,33,41,9,35,54,11,26,18,13,28,31,15,26,47,17,29,1,19,27,17,21,29,31,23,31,44,1,30,0,3,32,14,5,30,30
7,37,37,9,39,51,11,30,14,13,32,27,15,30,44,17,32,57,19,31,14,21,33,27,23,35,40,1,33,57,3,36,10,5,34,27
7,41,34,9,43,47,11,34,11,13,36,24,15,34,41,17,36,54,19,35,10,21,37,24,23,39,37,1,37,54,3,40,7,5,38,23
7,45,30,9,47,44,11,38,7,13,40,20,15,38,37,17,40,50,19,39,7,21,41,20,23,43,33,1,41,50,3,44,3,5,42,20
7,49,27,9,51,40,11,42,4,13,44,17,15,42,34,17,44,47,19,43,4,21,45,17,23,47,30,1,45,47,3,47,60,5,46,16
7,53,24,9,55,37,11,46,0,13,48,14,15,46,30,17,48,43,19,47,0,21,49,13,23,51,27,1,49,43,3,51,56,5,50,13
7,57,20,9,59,33,11,49,57,13,52,10,15,50,27,17,52,40,19,50,57,21,53,10,23,55,23,1,53,40,3,55,53,5,54,10
8,1,17,10,3,30,11,53,53,13,56,7,15,54,23,17,56,37,19,54,53,21,57,6,23,59,20,1,57,36,3,59,50,6,58,6
8,5,13,10,7,26,11,57,50,14,0,3,15,58,20,18,0,33,19,58,50,22,1,3,0,3,16,2,1,33,4,3,46,6,2,3
8,9,10,10,11,23,12,1,47,14,3,60,16,2,16,18,4,30,20,2,46,22,4,60,0,7,13,2,5,29,4,7,43,6,5,59
8,13,6,10,15,20,12,5,43,14,7,56,16,6,13,18,8,26,20,6,43,22,8,56,0,11,9,2,9,26,4,11,39,6,9,56
8,17,3,10,19,16,12,9,40,14,11,53,16,10,10,18,12,23,20,10,39,22,12,53,0,15,6,2,13,23,4,15,36,6,13,52
8,20,59,10,23,13,12,13,36,14,15,49,16,14,6,18,16,19,20,14,36,22,16,49,0,19,2,2,17,19,4,19,32,6,17,49
8,24,56,10,27,9,12,17,33,14,19,46,16,18,3,18,20,16,20,18,33,22,20,46,0,22,59,2,21,16,4,23,29,6,21,45
8,28,53,-1,-1,-1,12,21,29,14,23,43,16,21,59,18,24,12,20,22,29,22,24,42,0,26,56,2,25,12,4,27,25,6,25,42
8,32,49,-1,-1,-1,12,25,26,14,27,39,16,25,56,18,28,9,20,26,26,22,28,39,0,30,52,2,29,9,4,31,22,6,29,39
8,36,46,-1,-1,-1,12,29,22,-1,-1,-1,16,29,52,-1,-1,-1,20,30,22,22,32,35,-1,-1,-1,2,33,5,-1,-1,-1,6,33,35
